<?xml version="1.0" encoding="UTF-8" standalone="no"?>
<!-- Created with Inkscape (http://www.inkscape.org/) -->

<svg
   width="40.0px"
   height="40.0px"
   viewBox="0 0 40.0 40.0"
   version="1.1"
   id="SVGRoot"
   sodipodi:docname="plotwindow.svg"
   inkscape:version="1.2 (dc2aedaf03, 2022-05-15)"
   xmlns:inkscape="http://www.inkscape.org/namespaces/inkscape"
   xmlns:sodipodi="http://sodipodi.sourceforge.net/DTD/sodipodi-0.dtd"
   xmlns="http://www.w3.org/2000/svg"
   xmlns:svg="http://www.w3.org/2000/svg">
  <sodipodi:namedview
     id="namedview829"
     pagecolor="#ffffff"
     bordercolor="#666666"
     borderopacity="1.0"
     inkscape:pageshadow="2"
     inkscape:pageopacity="0.0"
     inkscape:pagecheckerboard="0"
     inkscape:document-units="px"
     showgrid="true"
     inkscape:zoom="11.859035"
     inkscape:cx="1.8551256"
     inkscape:cy="20.237734"
     inkscape:window-width="1920"
     inkscape:window-height="1017"
     inkscape:window-x="-8"
     inkscape:window-y="-8"
     inkscape:window-maximized="1"
     inkscape:current-layer="layer1"
     inkscape:showpageshadow="2"
     inkscape:deskcolor="#d1d1d1">
    <inkscape:grid
       type="xygrid"
       id="grid892" />
  </sodipodi:namedview>
  <defs
     id="defs824" />
  <g
     inkscape:label="Ebene 1"
     inkscape:groupmode="layer"
     id="layer1">
    <path
       style="fill:#0000ff;stroke:#000000;fill-opacity:1"
       d="M 2,2 V 5 H 38 V 2 Z"
       id="path839" />
    <path
       style="fill:#ebebea;fill-opacity:1;stroke:#000000"
       d="M 2,5 V 38 H 38 V 5 Z"
       id="path1489" />
    <path
       style="fill:#000000;fill-opacity:1;stroke:#000000"
       d="M 5,8 V 20 H 35 V 8 Z"
       id="path6189" />
    <path
       style="fill:#000000;fill-opacity:1;stroke:#000000"
       d="M 5,35 V 23 h 30 v 12 z"
       id="path6623" />
    <path
       style="fill:none;fill-opacity:1;stroke:#00ff00;stroke-width:2;stroke-dasharray:none;stroke-opacity:1"
       d="m 7,14 c 2,-1 5,-4 9,-4 4,0 12,9 16,9 1,0 1,0 1,0"
       id="path8623"
       sodipodi:nodetypes="cccc" />
    <path
       style="fill:none;fill-opacity:1;stroke:#ff0000;stroke-width:2;stroke-dasharray:none;stroke-opacity:1"
       d="m 8,10 5,8 5,-8 5,8 5,-8 5,9"
       id="path9160"
       sodipodi:nodetypes="cccccc" />
    <path
       style="fill:none;fill-opacity:1;stroke:#0000ff;stroke-width:2;stroke-dasharray:none;stroke-opacity:1"
       d="m 7,25 c 4,0 8,8 11,8 3,0 7,-8 11,-8 2,0 3,1 4,2"
       id="path9216"
       sodipodi:nodetypes="cccc" />
  </g>
</svg>
