<?xml version="1.0" encoding="UTF-8" standalone="no"?>
<svg
   width="40.0px"
   height="40.0px"
   viewBox="0 0 40.0 40.0"
   version="1.1"
   id="SVGRoot"
   sodipodi:docname="igbthalfbridge.svg"
   inkscape:version="1.2 (dc2aedaf03, 2022-05-15)"
   inkscape:export-filename="igbthalfbridge.png"
   inkscape:export-xdpi="96"
   inkscape:export-ydpi="96"
   xmlns:inkscape="http://www.inkscape.org/namespaces/inkscape"
   xmlns:sodipodi="http://sodipodi.sourceforge.net/DTD/sodipodi-0.dtd"
   xmlns="http://www.w3.org/2000/svg"
   xmlns:svg="http://www.w3.org/2000/svg"
   xmlns:rdf="http://www.w3.org/1999/02/22-rdf-syntax-ns#"
   xmlns:cc="http://creativecommons.org/ns#"
   xmlns:dc="http://purl.org/dc/elements/1.1/">
  <metadata
     id="metadata14">
    <rdf:RDF>
      <cc:Work
         rdf:about="">
        <dc:format>image/svg+xml</dc:format>
        <dc:type
           rdf:resource="http://purl.org/dc/dcmitype/StillImage" />
      </cc:Work>
    </rdf:RDF>
  </metadata>
  <sodipodi:namedview
     id="namedview893"
     pagecolor="#ffffff"
     bordercolor="#666666"
     borderopacity="1.0"
     inkscape:pageshadow="2"
     inkscape:pageopacity="0.0"
     inkscape:pagecheckerboard="0"
     inkscape:document-units="px"
     showgrid="true"
     inkscape:zoom="8.385604"
     inkscape:cx="4.1738198"
     inkscape:cy="13.594727"
     inkscape:window-width="1920"
     inkscape:window-height="1057"
     inkscape:window-x="-8"
     inkscape:window-y="-8"
     inkscape:window-maximized="1"
     inkscape:current-layer="layer1"
     inkscape:snap-global="true"
     inkscape:document-rotation="0"
     inkscape:snap-nodes="true"
     inkscape:snap-bbox="true"
     inkscape:showpageshadow="2"
     inkscape:deskcolor="#d1d1d1">
    <inkscape:grid
       type="xygrid"
       id="grid956" />
  </sodipodi:namedview>
  <defs
     id="defs888">
    <marker
       style="overflow:visible;"
       id="Arrow1Send"
       refX="0.0"
       refY="0.0"
       orient="auto"
       inkscape:stockid="Arrow1Send"
       inkscape:isstock="true">
      <path
         transform="scale(0.2) rotate(180) translate(6,0)"
         style="fill-rule:evenodd;stroke:#000000;stroke-width:1pt;stroke-opacity:1;fill:#000000;fill-opacity:1"
         d="M 0.0,0.0 L 5.0,-5.0 L -12.5,0.0 L 5.0,5.0 L 0.0,0.0 z "
         id="path878" />
    </marker>
  </defs>
  <g
     inkscape:label="Ebene 1"
     inkscape:groupmode="layer"
     id="layer1">
    <path
       style="fill:none;stroke:#000000"
       d="M 20,20 H 40"
       id="path363" />
    <path
       style="fill:none;stroke:#000000"
       d="M 17,5 V 15"
       id="path367" />
    <path
       style="fill:none;stroke:#000000"
       d="m 15,6 v 8"
       id="path369" />
    <path
       style="fill:none;stroke:#000000"
       d="M 20,0 V 4 L 17,7"
       id="path371"
       sodipodi:nodetypes="ccc" />
    <path
       style="fill:none;stroke:#000000"
       d="M 17,25 V 35"
       id="path373" />
    <path
       style="fill:none;stroke:#000000"
       d="m 15,26 v 8"
       id="path375" />
    <path
       style="fill:none;stroke:#000000"
       d="m 17,13 3,3 v 8 l -3,3"
       id="path377"
       sodipodi:nodetypes="cccc" />
    <path
       style="fill:none;stroke:#000000"
       d="M 20,40 V 36 L 17,33"
       id="path379"
       sodipodi:nodetypes="ccc" />
    <path
       style="fill:none;stroke:#000000"
       d="m 20,17 h 5 V 3 h -5"
       id="path477" />
    <path
       style="fill:none;stroke:#000000"
       d="m 22,13 h 6 L 25,7 Z"
       id="path481" />
    <path
       style="fill:none;stroke:#000000"
       d="m 22,7 h 6"
       id="path483" />
    <path
       style="fill:none;stroke:#000000"
       d="m 20,37 h 5 V 23 h -5"
       id="path485"
       sodipodi:nodetypes="cccc" />
    <path
       style="fill:none;stroke:#000000"
       d="m 22,33 h 6 l -3,-6 z"
       id="path487" />
    <path
       style="fill:none;stroke:#000000"
       d="m 22,27 h 6"
       id="path489" />
    <path
       style="fill:none;stroke:#000000"
       d="M 15,33 H 10 V 28"
       id="path491" />
    <path
       style="fill:none;stroke:#000000"
       d="M 10,30 H 0"
       id="path493" />
    <path
       style="fill:none;stroke:#000000"
       d="M 15,13 H 10 V 8"
       id="path495" />
    <path
       style="fill:none;stroke:#000000"
       d="M 10,10 H 0"
       id="path497" />
    <path
       style="fill:none;stroke:#000000"
       d="m 7,29 v 2 l 2,-1 z"
       id="path501"
       sodipodi:nodetypes="cccc" />
    <path
       style="fill:none;stroke:#000000"
       d="M 7,11 V 9 l 2,1 z"
       id="path503" />
    <path
       style="fill:none;stroke:#000000"
       d="m 18,35 1,-1 0.631083,1.673245 z"
       id="path511"
       sodipodi:nodetypes="cccc" />
    <path
       style="fill:none;stroke:#000000"
       d="m 18,15 1,-1 0.5573,1.578381 z"
       id="path513"
       sodipodi:nodetypes="cccc" />
  </g>
</svg>
